{
    "name": "Rbac",
    "alias": "rbac",
    "description": "",
    "keywords": [],
    "active": 1,
    "order": 0,
    "providers": [
        "Modules\\Rbac\\Providers\\RbacServiceProvider"
    ],
    "aliases": {},
    "files": [
        "helpers.php"
    ],
    "requires": []
}
