{
    "name": "DocumentVerification",
    "alias": "documentverification",
    "description": "",
    "keywords": [],
    "active": 1,
    "order": 0,
    "providers": [
        "Modules\\DocumentVerification\\Providers\\DocumentVerificationServiceProvider"
    ],
    "aliases": {},
    "files": [
        "helpers.php"
    ],
    "requires": []
}
