{
    "name": "ExchangeRate",
    "alias": "exchangerate",
    "description": "",
    "keywords": [],
    "active": 1,
    "order": 0,
    "providers": [
        "Modules\\ExchangeRate\\Providers\\ExchangeRateServiceProvider"
    ],
    "aliases": {},
    "files": [
        "helpers.php"
    ],
    "requires": []
}
